{
    "bot_token": "5908320049:AAE8OL_cbdsjcbsdjcBissdklfjhs1aGnS7DF8",
    "day_limit": 3,
    "speed_limit": 5,
    "application_id": "123123123",
    "application_hash": "12312312312313123123123123123",
    "auth": false
}